{
  "name": "Button",
  "image": "package://affordance_template_library/images/button.png",
  "display_objects": [
    {
      "name": "button",
      "shape": {
        "type": "mesh",
        "data": "package://affordance_template_library/models/button.stl",
        "size": [
          0.0254,
          0.0254,
          0.0254
        ]
      },
      "origin": {
        "xyz": [
          0.4504944384098053,
          0.10300737619400025,
          0.09987583756446839
        ],
        "rpy": [
          0.0,
          -1.570000004233985,
          0.0
        ]
      },
      "controls": {
        "xyz": [
          true,
          true,
          true
        ],
        "rpy": [
          true,
          true,
          true
        ],
        "scale": 0.05
      }
    }
  ],
  "end_effector_trajectory": [
    {
      "name": "Left Hand Button Push",
      "end_effector_group": [
        {
          "id": 0,
          "end_effector_waypoint": [
            {
              "ee_pose": 3,
              "display_object": "button",
              "origin": {
                "xyz": [
                  -0.03479955717921257,
                  -0.002459190785884857,
                  0.15072640776634217
                ],
                "rpy": [
                  1.927649902312114,
                  1.364071028393436,
                  1.9259090496879985
                ]
              },
              "controls": {
                "xyz": [
                  true,
                  true,
                  true
                ],
                "rpy": [
                  true,
                  true,
                  true
                ],
                "scale": 0.25
              },
              "tool_offset": {
                "xyz": [
                  0.0,
                  0.0,
                  0.0
                ],
                "rpy": [
                  0.0,
                  0.0,
                  0.0
                ]
              },
              "tolerances": {
                "x": [
                  0.01,
                  -0.01
                ],
                "y": [
                  0.01,
                  -0.01
                ],
                "z": [
                  0.01,
                  -0.01
                ],
                "R": [
                  0.0349,
                  -0.0349
                ],
                "P": [
                  0.0349,
                  -0.0349
                ],
                "Y": [
                  0.0349,
                  -0.0349
                ]
              },
              "conditioning_metric": "MIN_DISTANCE",
              "planner_type": "CARTESIAN"
            },
            {
              "ee_pose": 3,
              "display_object": "button",
              "origin": {
                "xyz": [
                  -0.025419561192393304,
                  -0.013063880614936352,
                  0.1306451261043549
                ],
                "rpy": [
                  2.0512670907759928,
                  1.272705266690706,
                  2.051034612831279
                ]
              },
              "controls": {
                "xyz": [
                  true,
                  true,
                  true
                ],
                "rpy": [
                  true,
                  true,
                  true
                ],
                "scale": 0.25
              },
              "tool_offset": {
                "xyz": [
                  0.0,
                  0.0,
                  0.0
                ],
                "rpy": [
                  0.0,
                  0.0,
                  0.0
                ]
              },
              "tolerances": {
                "x": [
                  0.01,
                  -0.01
                ],
                "y": [
                  0.01,
                  -0.01
                ],
                "z": [
                  0.01,
                  -0.01
                ],
                "R": [
                  0.0349,
                  -0.0349
                ],
                "P": [
                  0.0349,
                  -0.0349
                ],
                "Y": [
                  0.0349,
                  -0.0349
                ]
              },
              "conditioning_metric": "MIN_DISTANCE",
              "planner_type": "CARTESIAN"
            },
            {
              "ee_pose": 3,
              "display_object": "button",
              "origin": {
                "xyz": [
                  -0.03479955717921257,
                  -0.002459190785884857,
                  0.15072640776634217
                ],
                "rpy": [
                  1.927649902312114,
                  1.364071028393436,
                  1.9259090496879985
                ]
              },
              "controls": {
                "xyz": [
                  true,
                  true,
                  true
                ],
                "rpy": [
                  true,
                  true,
                  true
                ],
                "scale": 0.25
              },
              "tool_offset": {
                "xyz": [
                  0.0,
                  0.0,
                  0.0
                ],
                "rpy": [
                  0.0,
                  0.0,
                  0.0
                ]
              },
              "tolerances": {
                "x": [
                  0.01,
                  -0.01
                ],
                "y": [
                  0.01,
                  -0.01
                ],
                "z": [
                  0.01,
                  -0.01
                ],
                "R": [
                  0.0349,
                  -0.0349
                ],
                "P": [
                  0.0349,
                  -0.0349
                ],
                "Y": [
                  0.0349,
                  -0.0349
                ]
              },
              "conditioning_metric": "MIN_DISTANCE",
              "planner_type": "CARTESIAN"
            }
          ]
        }
      ]
    }
  ]
}
